Mansa Prasad Project1
…
Table 3

Table 3 gives us a different insight to the information that the pandemic dataset offers. In the previous tables there was information about how the viruses spread over the course of time, but Table 3 displays the highst number of known infected cases in a particular country based on the year. We can tell that out of the two viruses the Corona virus seems to have a higher infection count that ebola in the very short amount of time that it has been known to the public.

pandemic1 %>%
  group_by(country, year, virus) %>%
  summarise(total_infc = max(infc_rate)) %>%
  arrange(desc(total_infc))

## # A tibble: 62 x 4
## # Groups:   country, year [62]
##    country      year  virus  total_infc
##    <chr>        <chr> <chr>       <dbl>
##  1 China        2020  Corona      37198
##  2 Sierra Leone 2015  Ebola        8704
##  3 Sierra Leone 2016  Ebola        8704
##  4 Sierra Leone 2014  Ebola        7354
##  5 Guinea       2015  Ebola        3351
##  6 Guinea       2016  Ebola        3351
##  7 Liberia      2015  Ebola        3153
##  8 Liberia      2016  Ebola        3151
##  9 Liberia      2014  Ebola        3110
## 10 Guinea       2014  Ebola        2397
## # … with 52 more rows
…
